{"data":{"posts":[{"id":"https://worldcouncilforhealth.substack.com/p/new-paper-identifies-smoking-gun","title":"NEW Paper Identifies 'Smoking Gun' of Chronic Disease","link":"https://worldcouncilforhealth.substack.com/p/new-paper-identifies-smoking-gun","pubDate":"Tue, 04 Mar 2025 09:27:49 GMT","description":"... and most of us are in the crosshairs. The US Navy knew about it way back in 1971, yet nothing was done to stop it.","featuredImage":"https://substackcdn.com/image/fetch/w_1456,c_limit,f_auto,q_auto:good,fl_progressive:steep/https%3A%2F%2Fsubstack-post-media.s3.amazonaws.com%2Fpublic%2Fimages%2F4311bf3f-c3cc-43c1-bd3c-ccf5ed9aaf4a_900x473.jpeg","author":"World Council for Health","categories":[],"contentSnippet":""},{"id":"https://worldcouncilforhealth.substack.com/p/thank-you-arthur-firstenberg","title":"Thank you, Arthur Firstenberg","link":"https://worldcouncilforhealth.substack.com/p/thank-you-arthur-firstenberg","pubDate":"Sat, 01 Mar 2025 09:56:14 GMT","description":"Author, environmentalist and activist Arthur Firstenberg, has died. His service to people and planet will never be forgotten.","featuredImage":"https://substackcdn.com/image/fetch/w_1456,c_limit,f_auto,q_auto:good,fl_progressive:steep/https%3A%2F%2Fsubstack-post-media.s3.amazonaws.com%2Fpublic%2Fimages%2F80af5b79-285f-49a5-a073-5174b4e9774b_944x844.png","author":"World Council for Health","categories":[],"contentSnippet":""},{"id":"https://worldcouncilforhealth.substack.com/p/is-vaccination-really-the-best-defence","title":"Is vaccination really the best defence against measles? ","link":"https://worldcouncilforhealth.substack.com/p/is-vaccination-really-the-best-defence","pubDate":"Thu, 27 Feb 2025 13:02:31 GMT","description":"The data on efficacy, safety, and outbreaks reveal a more nuanced picture to that portrayed by corporate media. Time to separate fact from fiction.","featuredImage":"https://substackcdn.com/image/fetch/w_1456,c_limit,f_auto,q_auto:good,fl_progressive:steep/https%3A%2F%2Fsubstack-post-media.s3.amazonaws.com%2Fpublic%2Fimages%2F7335c5ec-ab37-41c5-abe1-e06ead115233_900x473.jpeg","author":"World Council for Health","categories":[],"contentSnippet":""},{"id":"https://worldcouncilforhealth.substack.com/p/a-message-to-vaccinators-and-those","title":"A Message to Vaccinators and Those Who Trust Them","link":"https://worldcouncilforhealth.substack.com/p/a-message-to-vaccinators-and-those","pubDate":"Tue, 25 Feb 2025 11:02:14 GMT","description":"German association of doctors asks \"How long will [you]... continue to urge patients to undergo useless, demonstrably harmful and questionable interventions...?\"","featuredImage":"https://substackcdn.com/image/fetch/w_1456,c_limit,f_auto,q_auto:good,fl_progressive:steep/https%3A%2F%2Fsubstack-post-media.s3.amazonaws.com%2Fpublic%2Fimages%2Fac06b050-fab4-4f66-a037-faa625951389_900x473.jpeg","author":"World Council for Health","categories":[],"contentSnippet":""},{"id":"https://worldcouncilforhealth.substack.com/p/updated-a-common-sense-approach-to","title":"UPDATED! A Common-Sense Approach to Respiratory Viruses: Part 3","link":"https://worldcouncilforhealth.substack.com/p/updated-a-common-sense-approach-to","pubDate":"Sat, 22 Feb 2025 09:29:40 GMT","description":"Why every household should have nasal sprays and oral rinses in their medicine cabinet.","featuredImage":"https://substackcdn.com/image/fetch/w_1456,c_limit,f_auto,q_auto:good,fl_progressive:steep/https%3A%2F%2Fsubstack-post-media.s3.amazonaws.com%2Fpublic%2Fimages%2F73da9d47-e251-45ae-b252-4f3ce914b3a5_900x473.jpeg","author":"World Council for Health","categories":[],"contentSnippet":""},{"id":"https://worldcouncilforhealth.substack.com/p/a-common-sense-approach-to-respiratory","title":"UPDATED! A Common-Sense Approach to Respiratory Viruses: Part 3","link":"https://worldcouncilforhealth.substack.com/p/a-common-sense-approach-to-respiratory","pubDate":"Fri, 21 Feb 2025 18:01:41 GMT","description":"Why every household should have nasal sprays and oral rinses in their medicine cabinet.","featuredImage":"https://substackcdn.com/image/fetch/w_1456,c_limit,f_auto,q_auto:good,fl_progressive:steep/https%3A%2F%2Fsubstack-post-media.s3.amazonaws.com%2Fpublic%2Fimages%2F73da9d47-e251-45ae-b252-4f3ce914b3a5_900x473.jpeg","author":"World Council for Health","categories":[],"contentSnippet":""},{"id":"https://worldcouncilforhealth.substack.com/p/whats-up-with-professor-bhakdis-legal","title":"What's Up With Professor Bhakdi’s Legal Case?","link":"https://worldcouncilforhealth.substack.com/p/whats-up-with-professor-bhakdis-legal","pubDate":"Fri, 21 Feb 2025 11:14:25 GMT","description":"With this latest postponement, the punishment by process being inflicted on this upstanding scientist is a sad reflection of the state of justice in Germany.","featuredImage":"https://substackcdn.com/image/fetch/w_1456,c_limit,f_auto,q_auto:good,fl_progressive:steep/https%3A%2F%2Fsubstack-post-media.s3.amazonaws.com%2Fpublic%2Fimages%2F6ef168de-dca4-4f64-bac4-043ff352096d_900x473.jpeg","author":"World Council for Health","categories":[],"contentSnippet":""},{"id":"https://worldcouncilforhealth.substack.com/p/yale-confirms-covid-vaccine-injury","title":"Yale Confirms Covid Vaccine Injury: Spike Protein Persists for Years","link":"https://worldcouncilforhealth.substack.com/p/yale-confirms-covid-vaccine-injury","pubDate":"Thu, 20 Feb 2025 17:10:46 GMT","description":"This new preprint confirms that spike protein lingers and causes havoc to the immune system.","featuredImage":"https://substackcdn.com/image/fetch/w_1456,c_limit,f_auto,q_auto:good,fl_progressive:steep/https%3A%2F%2Fsubstack-post-media.s3.amazonaws.com%2Fpublic%2Fimages%2F907fa7df-66df-42fe-b948-afb5d6616ac5_900x473.jpeg","author":"World Council for Health","categories":[],"contentSnippet":""},{"id":"https://worldcouncilforhealth.substack.com/p/epidemiologist-drops-bombshell-evidence","title":"Epidemiologist Drops Bombshell Evidence: Why Covid mRNA Shots Must Be Banned","link":"https://worldcouncilforhealth.substack.com/p/epidemiologist-drops-bombshell-evidence","pubDate":"Wed, 19 Feb 2025 16:28:29 GMT","description":"17 million lives at stake: the undeniable case for an mRNA injection moratorium","featuredImage":"https://substackcdn.com/image/fetch/w_1456,c_limit,f_auto,q_auto:good,fl_progressive:steep/https%3A%2F%2Fsubstack-post-media.s3.amazonaws.com%2Fpublic%2Fimages%2F0de958a2-9a50-4fed-a59d-168aee17bf72_900x473.jpeg","author":"World Council for Health","categories":[],"contentSnippet":""},{"id":"https://worldcouncilforhealth.substack.com/p/fda-petition-demands-action-on-synthetic","title":"FDA Petition Demands Action on Synthetic DNA Contamination in Pfizer & Moderna Covid-19 Products","link":"https://worldcouncilforhealth.substack.com/p/fda-petition-demands-action-on-synthetic","pubDate":"Wed, 19 Feb 2025 08:01:43 GMT","description":"Urgent call for public support - your comments matter!","featuredImage":"https://substackcdn.com/image/fetch/w_1456,c_limit,f_auto,q_auto:good,fl_progressive:steep/https%3A%2F%2Fsubstack-post-media.s3.amazonaws.com%2Fpublic%2Fimages%2F392d7816-41ac-4521-8565-558289fa7d0b_900x473.jpeg","author":"World Council for Health","categories":[],"contentSnippet":""},{"id":"https://worldcouncilforhealth.substack.com/p/look-whos-mainstream-media-now","title":"Look Who's Mainstream Media Now...","link":"https://worldcouncilforhealth.substack.com/p/look-whos-mainstream-media-now","pubDate":"Mon, 17 Feb 2025 13:55:38 GMT","description":"\"You were a part of the greatest lie modern society has ever told. How do you feel?\" Watch Del Bigtree call journalists to account at the MAHA press conference.","featuredImage":"https://substackcdn.com/image/fetch/w_1456,c_limit,f_auto,q_auto:good,fl_progressive:steep/https%3A%2F%2Fsubstack-post-media.s3.amazonaws.com%2Fpublic%2Fimages%2F81e8c4a0-6b3f-4d8b-a0fe-886f339483e0_900x473.jpeg","author":"World Council for Health","categories":[],"contentSnippet":""},{"id":"https://worldcouncilforhealth.substack.com/p/the-vmat2-gene-and-the-dangerous","title":"The VMAT2 Gene and the Dangerous Fantasy of Genetic Warfare","link":"https://worldcouncilforhealth.substack.com/p/the-vmat2-gene-and-the-dangerous","pubDate":"Fri, 14 Feb 2025 11:03:40 GMT","description":"Why we need a global moratorium on military genome experiments","featuredImage":"https://substackcdn.com/image/fetch/w_1456,c_limit,f_auto,q_auto:good,fl_progressive:steep/https%3A%2F%2Fsubstack-post-media.s3.amazonaws.com%2Fpublic%2Fimages%2F0c59131a-1b27-4683-9b6a-f24426e06076_900x473.jpeg","author":"World Council for Health","categories":[],"contentSnippet":""}],"pageInfo":{"totalItems":100,"totalPages":9,"currentPage":1,"hasNextPage":true,"hasPreviousPage":false}},"expiry":1741166838727}