{"data":{"posts":[{"id":"https://worldcouncilforhealth.substack.com/p/world-council-for-health-welcomes","title":"World Council for Health Welcomes the Appointment of Robert F. Kennedy Jr. as the U.S. Secretary of Health and Human Services ","link":"https://worldcouncilforhealth.substack.com/p/world-council-for-health-welcomes","pubDate":"Thu, 13 Feb 2025 19:31:51 GMT","description":"World Council for Health (WCH) welcomes the appointment of Robert F. Kennedy Jr. as the U.S. Secretary of Health and Human Services (HHS).","featuredImage":"https://substackcdn.com/image/fetch/w_1456,c_limit,f_auto,q_auto:good,fl_progressive:steep/https%3A%2F%2Fsubstack-post-media.s3.amazonaws.com%2Fpublic%2Fimages%2Ffe30e07b-c9d0-4aa2-95b3-dec19956b9a7_1024x575.webp","author":"World Council for Health","categories":[],"contentSnippet":""},{"id":"https://worldcouncilforhealth.substack.com/p/can-red-light-therapy-mend-our-childrens","title":"Can red light therapy mend our children's hearts? ","link":"https://worldcouncilforhealth.substack.com/p/can-red-light-therapy-mend-our-childrens","pubDate":"Tue, 11 Feb 2025 16:00:57 GMT","description":"New research is revealing the extent to which Covid injections have harmed children. But red light therapy offers a beacon of hope.","featuredImage":"https://substackcdn.com/image/fetch/w_1456,c_limit,f_auto,q_auto:good,fl_progressive:steep/https%3A%2F%2Fsubstack-post-media.s3.amazonaws.com%2Fpublic%2Fimages%2F474550f7-5601-40b1-9a7d-1869392516b7_900x473.jpeg","author":"World Council for Health","categories":[],"contentSnippet":""},{"id":"https://worldcouncilforhealth.substack.com/p/5-recent-substacks-worth-your-attention","title":"5 Recent Substacks Worth Your Attention","link":"https://worldcouncilforhealth.substack.com/p/5-recent-substacks-worth-your-attention","pubDate":"Sun, 09 Feb 2025 17:04:40 GMT","description":"This week's seen a flurry of excellent posts we want to share with you.","featuredImage":"https://images.unsplash.com/photo-1585829365295-ab7cd400c167?crop=entropy&amp;cs=tinysrgb&amp;fit=max&amp;fm=jpg&amp;ixid=M3wzMDAzMzh8MHwxfHNlYXJjaHwxMHx8bmV3c3xlbnwwfHx8fDE3MzkwODg1ODd8MA&amp;ixlib=rb-4.0.3&amp;q=80&amp;w=1080","author":"World Council for Health","categories":[],"contentSnippet":""},{"id":"https://worldcouncilforhealth.substack.com/p/look-what-they-did-to-our-antibodies","title":"Look what they did to our antibodies","link":"https://worldcouncilforhealth.substack.com/p/look-what-they-did-to-our-antibodies","pubDate":"Sat, 08 Feb 2025 08:02:13 GMT","description":"Our immune systems are supposed to fight viruses. Now they invite them round for tea. It's all down to IgG4...","featuredImage":"https://images.unsplash.com/photo-1593238350099-405c38243571?crop=entropy&amp;cs=tinysrgb&amp;fit=max&amp;fm=jpg&amp;ixid=M3wzMDAzMzh8MHwxfHNlYXJjaHwxfHxjb21lJTIwaW58ZW58MHx8fHwxNzM4OTYwOTIzfDA&amp;ixlib=rb-4.0.3&amp;q=80&amp;w=1080","author":"World Council for Health","categories":[],"contentSnippet":""},{"id":"https://worldcouncilforhealth.substack.com/p/detox-tips-from-wch-doctors","title":"Detox Tips from WCH Doctors","link":"https://worldcouncilforhealth.substack.com/p/detox-tips-from-wch-doctors","pubDate":"Thu, 06 Feb 2025 08:41:15 GMT","description":"Watch the Detox and Wellbeing Workshop now and enrol in our groundbreaking study","featuredImage":"https://substackcdn.com/image/fetch/w_1456,c_limit,f_auto,q_auto:good,fl_progressive:steep/https%3A%2F%2Fsubstack-post-media.s3.amazonaws.com%2Fpublic%2Fimages%2Fd96ffa96-6b0e-4acf-9aaa-855bf7aa62be_1600x1127.jpeg","author":"World Council for Health","categories":[],"contentSnippet":""},{"id":"https://worldcouncilforhealth.substack.com/p/the-great-divide","title":"The Great Divide ","link":"https://worldcouncilforhealth.substack.com/p/the-great-divide","pubDate":"Tue, 04 Feb 2025 11:22:58 GMT","description":"Wealth, poverty, and the unyielding struggle.","featuredImage":"https://substackcdn.com/image/fetch/w_1456,c_limit,f_auto,q_auto:good,fl_progressive:steep/https%3A%2F%2Fsubstack-post-media.s3.amazonaws.com%2Fpublic%2Fimages%2Fe5740c16-eb0e-477f-90aa-aafbd31565e9_900x473.jpeg","author":"World Council for Health","categories":[],"contentSnippet":""},{"id":"https://worldcouncilforhealth.substack.com/p/tonight-real-talk-on-exiting-the","title":"Tonight! Real talk on exiting the WHO...","link":"https://worldcouncilforhealth.substack.com/p/tonight-real-talk-on-exiting-the","pubDate":"Mon, 03 Feb 2025 17:13:32 GMT","description":"Join us today for an important online conversation on why and how nations should consider exiting the World Health Organization (WHO).","featuredImage":"https://substackcdn.com/image/fetch/w_1456,c_limit,f_auto,q_auto:good,fl_progressive:steep/https%3A%2F%2Fsubstack-post-media.s3.amazonaws.com%2Fpublic%2Fimages%2F78387f11-56b1-4405-9020-b4e610207035_1500x844.png","author":"World Council for Health","categories":[],"contentSnippet":""},{"id":"https://worldcouncilforhealth.substack.com/p/vaccinating-over-65s-lifesaving-or","title":"Vaccinating Over 65s: Lifesaving or a Misplaced Bet?","link":"https://worldcouncilforhealth.substack.com/p/vaccinating-over-65s-lifesaving-or","pubDate":"Sat, 01 Feb 2025 08:01:31 GMT","description":"Vaccines are supposed to be the cornerstone of public health, especially to protect the elderly - but do they work well enough for older adults?","featuredImage":"https://substackcdn.com/image/fetch/w_1456,c_limit,f_auto,q_auto:good,fl_progressive:steep/https%3A%2F%2Fsubstack-post-media.s3.amazonaws.com%2Fpublic%2Fimages%2Ffd7ca198-59a9-41d0-86f1-c6755da2cc9c_1200x630.jpeg","author":"World Council for Health","categories":[],"contentSnippet":""},{"id":"https://worldcouncilforhealth.substack.com/p/new-paper-identifies-smoking-gun","title":"NEW Paper Identifies 'Smoking Gun' of Chronic Disease","link":"https://worldcouncilforhealth.substack.com/p/new-paper-identifies-smoking-gun","pubDate":"Tue, 04 Mar 2025 09:27:49 GMT","description":"... and most of us are in the crosshairs. The US Navy knew about it way back in 1971, yet nothing was done to stop it.","featuredImage":"https://substackcdn.com/image/fetch/w_1456,c_limit,f_auto,q_auto:good,fl_progressive:steep/https%3A%2F%2Fsubstack-post-media.s3.amazonaws.com%2Fpublic%2Fimages%2F4311bf3f-c3cc-43c1-bd3c-ccf5ed9aaf4a_900x473.jpeg","author":"World Council for Health","categories":[],"contentSnippet":""},{"id":"https://worldcouncilforhealth.substack.com/p/thank-you-arthur-firstenberg","title":"Thank you, Arthur Firstenberg","link":"https://worldcouncilforhealth.substack.com/p/thank-you-arthur-firstenberg","pubDate":"Sat, 01 Mar 2025 09:56:14 GMT","description":"Author, environmentalist and activist Arthur Firstenberg, has died. His service to people and planet will never be forgotten.","featuredImage":"https://substackcdn.com/image/fetch/w_1456,c_limit,f_auto,q_auto:good,fl_progressive:steep/https%3A%2F%2Fsubstack-post-media.s3.amazonaws.com%2Fpublic%2Fimages%2F80af5b79-285f-49a5-a073-5174b4e9774b_944x844.png","author":"World Council for Health","categories":[],"contentSnippet":""},{"id":"https://worldcouncilforhealth.substack.com/p/is-vaccination-really-the-best-defence","title":"Is vaccination really the best defence against measles? ","link":"https://worldcouncilforhealth.substack.com/p/is-vaccination-really-the-best-defence","pubDate":"Thu, 27 Feb 2025 13:02:31 GMT","description":"The data on efficacy, safety, and outbreaks reveal a more nuanced picture to that portrayed by corporate media. Time to separate fact from fiction.","featuredImage":"https://substackcdn.com/image/fetch/w_1456,c_limit,f_auto,q_auto:good,fl_progressive:steep/https%3A%2F%2Fsubstack-post-media.s3.amazonaws.com%2Fpublic%2Fimages%2F7335c5ec-ab37-41c5-abe1-e06ead115233_900x473.jpeg","author":"World Council for Health","categories":[],"contentSnippet":""},{"id":"https://worldcouncilforhealth.substack.com/p/a-message-to-vaccinators-and-those","title":"A Message to Vaccinators and Those Who Trust Them","link":"https://worldcouncilforhealth.substack.com/p/a-message-to-vaccinators-and-those","pubDate":"Tue, 25 Feb 2025 11:02:14 GMT","description":"German association of doctors asks \"How long will [you]... continue to urge patients to undergo useless, demonstrably harmful and questionable interventions...?\"","featuredImage":"https://substackcdn.com/image/fetch/w_1456,c_limit,f_auto,q_auto:good,fl_progressive:steep/https%3A%2F%2Fsubstack-post-media.s3.amazonaws.com%2Fpublic%2Fimages%2Fac06b050-fab4-4f66-a037-faa625951389_900x473.jpeg","author":"World Council for Health","categories":[],"contentSnippet":""}],"pageInfo":{"totalItems":100,"totalPages":9,"currentPage":2,"hasNextPage":true,"hasPreviousPage":true}},"expiry":1741167235794}